{
	"error_code": 0,
	"current_page": 1,
	"total_page": 5,
	"total_entries": 40,
	"photo_data": [{
			"id": 214302,
			"title": "清纯大眼美女肤若凝脂俏皮可爱图片",
			"time": "2020-07-26 09:24:00",
			"cover": "images/8.jpg"
		},
		{
			"id": 214303,
			"title": "吊带短裤小妹海边凌乱美写真",
			"time": "2020-07-26 09:24:00",
			"cover": "images/1.jpg"
		}, {
			"id": 214304,
			"title": "气质佳人低胸长裙清纯唯美图片",
			"time": "2020-07-26 09:24:00",
			"cover": "images/2.jpg"
		}, {
			"id": 214305,
			"title": "网红女神风情万种惹火照片",
			"time": "2020-07-26 09:24:00",
			"cover": "images/3.jpg"
		},{
			"id": 214306,
			"title": "软萌妹子海边清纯写真合集",
			"time": "2020-07-26 09:24:00",
			"cover": "images/4.jpg"
		},{
			"id": 214307,
			"title": "宅男女神肌肤莹白若雪气质出尘妹子图",
			"time": "2020-07-26 09:24:00",
			"cover": "images/5.jpg"
		},{
			"id": 214308,
			"title": "温婉小女人性格温柔无害撩人妹子图",
			"time": "2020-07-26 09:24:00",
			"cover": "images/6.jpg"
		},{
			"id": 214309,
			"title": "萝莉美少女居家甜美可人极品图库",
			"time": "2020-07-26 09:24:00",
			"cover": "images/7.jpg"
		}
	]
}
